Question 11: 6
Time taken : 8,337285

Question 13: 4
Time taken : 15,10469

Question 21: 0
Time taken : 6,448141

Question 4: 5
Time taken : 6,373375

Question 12: 6
Time taken : 5,496993

Question 6: 4
Time taken : 10,27965

Question 14: 4
Time taken : 6,107651

Question 20: 5
Time taken : 20,89259

Question 10: 3
Time taken : 9,529469

Question 1: 4
Time taken : 4,572907

Question 18: 0
Time taken : 1,971325

Question 9: 2
Time taken : 3,794999

Question 8: 5
Time taken : 3,538755

Question 17: 2
Time taken : 4,504825

Question 7: 4
Time taken : 4,401281

Question 2: 4
Time taken : 26,89741

Question 5: 2
Time taken : 5,62839

Question 19: 2
Time taken : 7,928616

Question 16: 1
Time taken : 5,362856

Question 15: 3
Time taken : 4,296037

Question 3: 0
Time taken : 9,760722

