%YAML 1.1
%TAG !u! tag:unity3d.com,2011:
--- !u!114 &338208107
MonoBehaviour:
  m_ObjectHideFlags: 0
  m_CorrespondingSourceObject: {fileID: 0}
  m_PrefabInstance: {fileID: 0}
  m_PrefabAsset: {fileID: 0}
  m_GameObject: {fileID: 2109146021938719245}
  m_Enabled: 1
  m_EditorHideFlags: 0
  m_Script: {fileID: 11500000, guid: cf162022e230bb745ab2ec48cd357f9e, type: 3}
  m_Name: 
  m_EditorClassIdentifier: 
  CameraRig: {fileID: 2109146021949448177}
  CurrentDistance: 0
  EnableFadeout: 0
  EnableCollision: 0
  DynamicHeight: 0
  MaxFade: 1
  FadeMinDistance: 0.25
  FadeMaxDistance: 0.35
--- !u!1001 &2109146021133352429
PrefabInstance:
  m_ObjectHideFlags: 0
  serializedVersion: 2
  m_Modification:
    m_TransformParent: {fileID: 2109146021938539335}
    m_Modifications:
    - target: {fileID: 1000013750628434, guid: b10a4c7080e4e3c44bb60ffbaa5d0206, type: 3}
      propertyPath: m_Name
      value: LeftControllerPf
      objectReference: {fileID: 0}
    - target: {fileID: 4000012594008626, guid: b10a4c7080e4e3c44bb60ffbaa5d0206, type: 3}
      propertyPath: m_LocalPosition.x
      value: 0
      objectReference: {fileID: 0}
    - target: {fileID: 4000012594008626, guid: b10a4c7080e4e3c44bb60ffbaa5d0206, type: 3}
      propertyPath: m_LocalPosition.y
      value: 0
      objectReference: {fileID: 0}
    - target: {fileID: 4000012594008626, guid: b10a4c7080e4e3c44bb60ffbaa5d0206, type: 3}
      propertyPath: m_LocalPosition.z
      value: 0
      objectReference: {fileID: 0}
    - target: {fileID: 4000012594008626, guid: b10a4c7080e4e3c44bb60ffbaa5d0206, type: 3}
      propertyPath: m_LocalRotation.x
      value: -0
      objectReference: {fileID: 0}
    - target: {fileID: 4000012594008626, guid: b10a4c7080e4e3c44bb60ffbaa5d0206, type: 3}
      propertyPath: m_LocalRotation.y
      value: -0
      objectReference: {fileID: 0}
    - target: {fileID: 4000012594008626, guid: b10a4c7080e4e3c44bb60ffbaa5d0206, type: 3}
      propertyPath: m_LocalRotation.z
      value: -0
      objectReference: {fileID: 0}
    - target: {fileID: 4000012594008626, guid: b10a4c7080e4e3c44bb60ffbaa5d0206, type: 3}
      propertyPath: m_LocalRotation.w
      value: 1
      objectReference: {fileID: 0}
    - target: {fileID: 4000012594008626, guid: b10a4c7080e4e3c44bb60ffbaa5d0206, type: 3}
      propertyPath: m_RootOrder
      value: 1
      objectReference: {fileID: 0}
    - target: {fileID: 4000012594008626, guid: b10a4c7080e4e3c44bb60ffbaa5d0206, type: 3}
      propertyPath: m_LocalEulerAnglesHint.x
      value: 0
      objectReference: {fileID: 0}
    - target: {fileID: 4000012594008626, guid: b10a4c7080e4e3c44bb60ffbaa5d0206, type: 3}
      propertyPath: m_LocalEulerAnglesHint.y
      value: 0
      objectReference: {fileID: 0}
    - target: {fileID: 4000012594008626, guid: b10a4c7080e4e3c44bb60ffbaa5d0206, type: 3}
      propertyPath: m_LocalEulerAnglesHint.z
      value: 0
      objectReference: {fileID: 0}
    m_RemovedComponents: []
  m_SourcePrefab: {fileID: 100100000, guid: b10a4c7080e4e3c44bb60ffbaa5d0206, type: 3}
--- !u!1001 &2109146021284489169
PrefabInstance:
  m_ObjectHideFlags: 0
  serializedVersion: 2
  m_Modification:
    m_TransformParent: {fileID: 2109146021938543401}
    m_Modifications:
    - target: {fileID: 1000011629385226, guid: fa4a34fb8bbe14649bca25aee46a5f4e, type: 3}
      propertyPath: m_Name
      value: RightControllerPf
      objectReference: {fileID: 0}
    - target: {fileID: 4000011837718206, guid: fa4a34fb8bbe14649bca25aee46a5f4e, type: 3}
      propertyPath: m_LocalPosition.x
      value: 0
      objectReference: {fileID: 0}
    - target: {fileID: 4000011837718206, guid: fa4a34fb8bbe14649bca25aee46a5f4e, type: 3}
      propertyPath: m_LocalPosition.y
      value: 0
      objectReference: {fileID: 0}
    - target: {fileID: 4000011837718206, guid: fa4a34fb8bbe14649bca25aee46a5f4e, type: 3}
      propertyPath: m_LocalPosition.z
      value: 0
      objectReference: {fileID: 0}
    - target: {fileID: 4000011837718206, guid: fa4a34fb8bbe14649bca25aee46a5f4e, type: 3}
      propertyPath: m_LocalRotation.x
      value: -0
      objectReference: {fileID: 0}
    - target: {fileID: 4000011837718206, guid: fa4a34fb8bbe14649bca25aee46a5f4e, type: 3}
      propertyPath: m_LocalRotation.y
      value: -0
      objectReference: {fileID: 0}
    - target: {fileID: 4000011837718206, guid: fa4a34fb8bbe14649bca25aee46a5f4e, type: 3}
      propertyPath: m_LocalRotation.z
      value: -0
      objectReference: {fileID: 0}
    - target: {fileID: 4000011837718206, guid: fa4a34fb8bbe14649bca25aee46a5f4e, type: 3}
      propertyPath: m_LocalRotation.w
      value: 1
      objectReference: {fileID: 0}
    - target: {fileID: 4000011837718206, guid: fa4a34fb8bbe14649bca25aee46a5f4e, type: 3}
      propertyPath: m_RootOrder
      value: 1
      objectReference: {fileID: 0}
    - target: {fileID: 4000011837718206, guid: fa4a34fb8bbe14649bca25aee46a5f4e, type: 3}
      propertyPath: m_LocalEulerAnglesHint.x
      value: 0
      objectReference: {fileID: 0}
    - target: {fileID: 4000011837718206, guid: fa4a34fb8bbe14649bca25aee46a5f4e, type: 3}
      propertyPath: m_LocalEulerAnglesHint.y
      value: 0
      objectReference: {fileID: 0}
    - target: {fileID: 4000011837718206, guid: fa4a34fb8bbe14649bca25aee46a5f4e, type: 3}
      propertyPath: m_LocalEulerAnglesHint.z
      value: 0
      objectReference: {fileID: 0}
    m_RemovedComponents: []
  m_SourcePrefab: {fileID: 100100000, guid: fa4a34fb8bbe14649bca25aee46a5f4e, type: 3}
--- !u!1001 &2109146021938621605
PrefabInstance:
  m_ObjectHideFlags: 0
  serializedVersion: 2
  m_Modification:
    m_TransformParent: {fileID: 0}
    m_Modifications:
    - target: {fileID: 100008, guid: ce816f2e6abb0504092c23ed9b970dfd, type: 3}
      propertyPath: m_Name
      value: OVRPlayerController
      objectReference: {fileID: 0}
    - target: {fileID: 400006, guid: ce816f2e6abb0504092c23ed9b970dfd, type: 3}
      propertyPath: m_LocalPosition.x
      value: 0
      objectReference: {fileID: 0}
    - target: {fileID: 400006, guid: ce816f2e6abb0504092c23ed9b970dfd, type: 3}
      propertyPath: m_LocalPosition.y
      value: 1
      objectReference: {fileID: 0}
    - target: {fileID: 400006, guid: ce816f2e6abb0504092c23ed9b970dfd, type: 3}
      propertyPath: m_LocalPosition.z
      value: 0
      objectReference: {fileID: 0}
    - target: {fileID: 400006, guid: ce816f2e6abb0504092c23ed9b970dfd, type: 3}
      propertyPath: m_LocalRotation.x
      value: 0
      objectReference: {fileID: 0}
    - target: {fileID: 400006, guid: ce816f2e6abb0504092c23ed9b970dfd, type: 3}
      propertyPath: m_LocalRotation.y
      value: 0
      objectReference: {fileID: 0}
    - target: {fileID: 400006, guid: ce816f2e6abb0504092c23ed9b970dfd, type: 3}
      propertyPath: m_LocalRotation.z
      value: 0
      objectReference: {fileID: 0}
    - target: {fileID: 400006, guid: ce816f2e6abb0504092c23ed9b970dfd, type: 3}
      propertyPath: m_LocalRotation.w
      value: 1
      objectReference: {fileID: 0}
    - target: {fileID: 400006, guid: ce816f2e6abb0504092c23ed9b970dfd, type: 3}
      propertyPath: m_RootOrder
      value: 0
      objectReference: {fileID: 0}
    - target: {fileID: 400006, guid: ce816f2e6abb0504092c23ed9b970dfd, type: 3}
      propertyPath: m_LocalEulerAnglesHint.x
      value: 0
      objectReference: {fileID: 0}
    - target: {fileID: 400006, guid: ce816f2e6abb0504092c23ed9b970dfd, type: 3}
      propertyPath: m_LocalEulerAnglesHint.y
      value: 0
      objectReference: {fileID: 0}
    - target: {fileID: 400006, guid: ce816f2e6abb0504092c23ed9b970dfd, type: 3}
      propertyPath: m_LocalEulerAnglesHint.z
      value: 0
      objectReference: {fileID: 0}
    - target: {fileID: 400006, guid: ce816f2e6abb0504092c23ed9b970dfd, type: 3}
      propertyPath: m_LocalScale.y
      value: 1
      objectReference: {fileID: 0}
    - target: {fileID: 400006, guid: ce816f2e6abb0504092c23ed9b970dfd, type: 3}
      propertyPath: m_LocalScale.x
      value: 1
      objectReference: {fileID: 0}
    - target: {fileID: 400006, guid: ce816f2e6abb0504092c23ed9b970dfd, type: 3}
      propertyPath: m_LocalScale.z
      value: 1
      objectReference: {fileID: 0}
    - target: {fileID: 14300000, guid: ce816f2e6abb0504092c23ed9b970dfd, type: 3}
      propertyPath: m_Radius
      value: 0.1
      objectReference: {fileID: 0}
    - target: {fileID: 11400002, guid: ce816f2e6abb0504092c23ed9b970dfd, type: 3}
      propertyPath: _headPoseRelativeOffsetRotation.y
      value: 0
      objectReference: {fileID: 0}
    - target: {fileID: 11400002, guid: ce816f2e6abb0504092c23ed9b970dfd, type: 3}
      propertyPath: useRecommendedMSAALevel
      value: 0
      objectReference: {fileID: 0}
    - target: {fileID: 20131489337305086, guid: ce816f2e6abb0504092c23ed9b970dfd,
        type: 3}
      propertyPath: m_Enabled
      value: 0
      objectReference: {fileID: 0}
    - target: {fileID: 2015248, guid: ce816f2e6abb0504092c23ed9b970dfd, type: 3}
      propertyPath: m_Enabled
      value: 1
      objectReference: {fileID: 0}
    - target: {fileID: 20504667576486672, guid: ce816f2e6abb0504092c23ed9b970dfd,
        type: 3}
      propertyPath: m_Enabled
      value: 0
      objectReference: {fileID: 0}
    m_RemovedComponents: []
  m_SourcePrefab: {fileID: 100100000, guid: ce816f2e6abb0504092c23ed9b970dfd, type: 3}
--- !u!1 &2109146021938719245 stripped
GameObject:
  m_CorrespondingSourceObject: {fileID: 100008, guid: ce816f2e6abb0504092c23ed9b970dfd,
    type: 3}
  m_PrefabInstance: {fileID: 2109146021938621605}
  m_PrefabAsset: {fileID: 0}
--- !u!114 &2109146021949448177 stripped
MonoBehaviour:
  m_CorrespondingSourceObject: {fileID: 11400020, guid: ce816f2e6abb0504092c23ed9b970dfd,
    type: 3}
  m_PrefabInstance: {fileID: 2109146021938621605}
  m_PrefabAsset: {fileID: 0}
  m_GameObject: {fileID: 0}
  m_Enabled: 1
  m_EditorHideFlags: 0
  m_Script: {fileID: 11500000, guid: df9f338034892c44ebb62d97894772f1, type: 3}
  m_Name: 
  m_EditorClassIdentifier: 
--- !u!4 &2109146021938539335 stripped
Transform:
  m_CorrespondingSourceObject: {fileID: 477154, guid: ce816f2e6abb0504092c23ed9b970dfd,
    type: 3}
  m_PrefabInstance: {fileID: 2109146021938621605}
  m_PrefabAsset: {fileID: 0}
--- !u!4 &2109146021938543401 stripped
Transform:
  m_CorrespondingSourceObject: {fileID: 481164, guid: ce816f2e6abb0504092c23ed9b970dfd,
    type: 3}
  m_PrefabInstance: {fileID: 2109146021938621605}
  m_PrefabAsset: {fileID: 0}
