%YAML 1.1
%TAG !u! tag:unity3d.com,2011:
--- !u!29 &1
OcclusionCullingSettings:
  m_ObjectHideFlags: 0
  serializedVersion: 2
  m_OcclusionBakeSettings:
    smallestOccluder: 5
    smallestHole: 0.25
    backfaceThreshold: 100
  m_SceneGUID: 00000000000000000000000000000000
  m_OcclusionCullingData: {fileID: 0}
--- !u!104 &2
RenderSettings:
  m_ObjectHideFlags: 0
  serializedVersion: 9
  m_Fog: 0
  m_FogColor: {r: 0.5, g: 0.5, b: 0.5, a: 1}
  m_FogMode: 3
  m_FogDensity: 0.01
  m_LinearFogStart: 0
  m_LinearFogEnd: 300
  m_AmbientSkyColor: {r: 0.212, g: 0.227, b: 0.259, a: 1}
  m_AmbientEquatorColor: {r: 0.114, g: 0.125, b: 0.133, a: 1}
  m_AmbientGroundColor: {r: 0.047, g: 0.043, b: 0.035, a: 1}
  m_AmbientIntensity: 0
  m_AmbientMode: 0
  m_SubtractiveShadowColor: {r: 0.42, g: 0.478, b: 0.627, a: 1}
  m_SkyboxMaterial: {fileID: 10304, guid: 0000000000000000f000000000000000, type: 0}
  m_HaloStrength: 0.5
  m_FlareStrength: 1
  m_FlareFadeSpeed: 3
  m_HaloTexture: {fileID: 0}
  m_SpotCookie: {fileID: 10001, guid: 0000000000000000e000000000000000, type: 0}
  m_DefaultReflectionMode: 0
  m_DefaultReflectionResolution: 128
  m_ReflectionBounces: 1
  m_ReflectionIntensity: 1
  m_CustomReflection: {fileID: 0}
  m_Sun: {fileID: 705507994}
  m_IndirectSpecularColor: {r: 0.44657898, g: 0.4964133, b: 0.5748178, a: 1}
  m_UseRadianceAmbientProbe: 0
--- !u!157 &3
LightmapSettings:
  m_ObjectHideFlags: 0
  serializedVersion: 11
  m_GIWorkflowMode: 0
  m_GISettings:
    serializedVersion: 2
    m_BounceScale: 1
    m_IndirectOutputScale: 1
    m_AlbedoBoost: 1
    m_EnvironmentLightingMode: 0
    m_EnableBakedLightmaps: 1
    m_EnableRealtimeLightmaps: 1
  m_LightmapEditorSettings:
    serializedVersion: 12
    m_Resolution: 2
    m_BakeResolution: 40
    m_AtlasSize: 1024
    m_AO: 0
    m_AOMaxDistance: 1
    m_CompAOExponent: 1
    m_CompAOExponentDirect: 0
    m_ExtractAmbientOcclusion: 0
    m_Padding: 2
    m_LightmapParameters: {fileID: 0}
    m_LightmapsBakeMode: 1
    m_TextureCompression: 1
    m_FinalGather: 0
    m_FinalGatherFiltering: 1
    m_FinalGatherRayCount: 256
    m_ReflectionCompression: 2
    m_MixedBakeMode: 2
    m_BakeBackend: 1
    m_PVRSampling: 1
    m_PVRDirectSampleCount: 32
    m_PVRSampleCount: 500
    m_PVRBounces: 2
    m_PVREnvironmentSampleCount: 500
    m_PVREnvironmentReferencePointCount: 2048
    m_PVRFilteringMode: 2
    m_PVRDenoiserTypeDirect: 0
    m_PVRDenoiserTypeIndirect: 0
    m_PVRDenoiserTypeAO: 0
    m_PVRFilterTypeDirect: 0
    m_PVRFilterTypeIndirect: 0
    m_PVRFilterTypeAO: 0
    m_PVREnvironmentMIS: 0
    m_PVRCulling: 1
    m_PVRFilteringGaussRadiusDirect: 1
    m_PVRFilteringGaussRadiusIndirect: 5
    m_PVRFilteringGaussRadiusAO: 2
    m_PVRFilteringAtrousPositionSigmaDirect: 0.5
    m_PVRFilteringAtrousPositionSigmaIndirect: 2
    m_PVRFilteringAtrousPositionSigmaAO: 1
    m_ShowResolutionOverlay: 1
    m_ExportTrainingData: 0
  m_LightingDataAsset: {fileID: 0}
  m_UseShadowmask: 1
--- !u!196 &4
NavMeshSettings:
  serializedVersion: 2
  m_ObjectHideFlags: 0
  m_BuildSettings:
    serializedVersion: 2
    agentTypeID: 0
    agentRadius: 0.5
    agentHeight: 2
    agentSlope: 45
    agentClimb: 0.4
    ledgeDropHeight: 0
    maxJumpAcrossDistance: 0
    minRegionArea: 2
    manualCellSize: 0
    cellSize: 0.16666667
    manualTileSize: 0
    tileSize: 256
    accuratePlacement: 0
    debug:
      m_Flags: 0
  m_NavMeshData: {fileID: 0}
--- !u!1 &705507993
GameObject:
  m_ObjectHideFlags: 0
  m_CorrespondingSourceObject: {fileID: 0}
  m_PrefabInstance: {fileID: 0}
  m_PrefabAsset: {fileID: 0}
  serializedVersion: 6
  m_Component:
  - component: {fileID: 705507995}
  - component: {fileID: 705507994}
  m_Layer: 0
  m_Name: Directional Light
  m_TagString: Untagged
  m_Icon: {fileID: 0}
  m_NavMeshLayer: 0
  m_StaticEditorFlags: 0
  m_IsActive: 1
--- !u!108 &705507994
Light:
  m_ObjectHideFlags: 0
  m_CorrespondingSourceObject: {fileID: 0}
  m_PrefabInstance: {fileID: 0}
  m_PrefabAsset: {fileID: 0}
  m_GameObject: {fileID: 705507993}
  m_Enabled: 1
  serializedVersion: 9
  m_Type: 1
  m_Color: {r: 1, g: 1, b: 1, a: 1}
  m_Intensity: 1
  m_Range: 10
  m_SpotAngle: 30
  m_InnerSpotAngle: 21.80208
  m_CookieSize: 10
  m_Shadows:
    m_Type: 2
    m_Resolution: -1
    m_CustomResolution: -1
    m_Strength: 1
    m_Bias: 0.05
    m_NormalBias: 0.4
    m_NearPlane: 0.2
    m_CullingMatrixOverride:
      e00: 1
      e01: 0
      e02: 0
      e03: 0
      e10: 0
      e11: 1
      e12: 0
      e13: 0
      e20: 0
      e21: 0
      e22: 1
      e23: 0
      e30: 0
      e31: 0
      e32: 0
      e33: 1
    m_UseCullingMatrixOverride: 0
  m_Cookie: {fileID: 0}
  m_DrawHalo: 0
  m_Flare: {fileID: 0}
  m_RenderMode: 0
  m_CullingMask:
    serializedVersion: 2
    m_Bits: 4294967295
  m_RenderingLayerMask: 1
  m_Lightmapping: 1
  m_LightShadowCasterMode: 0
  m_AreaSize: {x: 1, y: 1}
  m_BounceIntensity: 1
  m_ColorTemperature: 6570
  m_UseColorTemperature: 0
  m_BoundingSphereOverride: {x: 0, y: 0, z: 0, w: 0}
  m_UseBoundingSphereOverride: 0
  m_ShadowRadius: 0
  m_ShadowAngle: 0
--- !u!4 &705507995
Transform:
  m_ObjectHideFlags: 0
  m_CorrespondingSourceObject: {fileID: 0}
  m_PrefabInstance: {fileID: 0}
  m_PrefabAsset: {fileID: 0}
  m_GameObject: {fileID: 705507993}
  m_LocalRotation: {x: 0.40821788, y: -0.23456968, z: 0.10938163, w: 0.8754261}
  m_LocalPosition: {x: 0.82, y: 6.97, z: -1.43}
  m_LocalScale: {x: 1, y: 1, z: 1}
  m_Children: []
  m_Father: {fileID: 0}
  m_RootOrder: 0
  m_LocalEulerAnglesHint: {x: 50, y: -30, z: 0}
--- !u!1001 &2081547765
PrefabInstance:
  m_ObjectHideFlags: 0
  serializedVersion: 2
  m_Modification:
    m_TransformParent: {fileID: 0}
    m_Modifications:
    - target: {fileID: 2252309140482017205, guid: d12a02c398abf2b4b8a527a2c9f76044,
        type: 3}
      propertyPath: m_Name
      value: Atbildes
      objectReference: {fileID: 0}
    - target: {fileID: 2252309140482017201, guid: d12a02c398abf2b4b8a527a2c9f76044,
        type: 3}
      propertyPath: m_LocalPosition.x
      value: 0
      objectReference: {fileID: 0}
    - target: {fileID: 2252309140482017201, guid: d12a02c398abf2b4b8a527a2c9f76044,
        type: 3}
      propertyPath: m_LocalPosition.y
      value: 0
      objectReference: {fileID: 0}
    - target: {fileID: 2252309140482017201, guid: d12a02c398abf2b4b8a527a2c9f76044,
        type: 3}
      propertyPath: m_LocalPosition.z
      value: 1.513
      objectReference: {fileID: 0}
    - target: {fileID: 2252309140482017201, guid: d12a02c398abf2b4b8a527a2c9f76044,
        type: 3}
      propertyPath: m_LocalRotation.x
      value: 0.61962986
      objectReference: {fileID: 0}
    - target: {fileID: 2252309140482017201, guid: d12a02c398abf2b4b8a527a2c9f76044,
        type: 3}
      propertyPath: m_LocalRotation.y
      value: -0
      objectReference: {fileID: 0}
    - target: {fileID: 2252309140482017201, guid: d12a02c398abf2b4b8a527a2c9f76044,
        type: 3}
      propertyPath: m_LocalRotation.z
      value: -0
      objectReference: {fileID: 0}
    - target: {fileID: 2252309140482017201, guid: d12a02c398abf2b4b8a527a2c9f76044,
        type: 3}
      propertyPath: m_LocalRotation.w
      value: 0.7848942
      objectReference: {fileID: 0}
    - target: {fileID: 2252309140482017201, guid: d12a02c398abf2b4b8a527a2c9f76044,
        type: 3}
      propertyPath: m_RootOrder
      value: 7
      objectReference: {fileID: 0}
    - target: {fileID: 2252309140482017201, guid: d12a02c398abf2b4b8a527a2c9f76044,
        type: 3}
      propertyPath: m_LocalEulerAnglesHint.x
      value: 76.578
      objectReference: {fileID: 0}
    - target: {fileID: 2252309140482017201, guid: d12a02c398abf2b4b8a527a2c9f76044,
        type: 3}
      propertyPath: m_LocalEulerAnglesHint.y
      value: 0
      objectReference: {fileID: 0}
    - target: {fileID: 2252309140482017201, guid: d12a02c398abf2b4b8a527a2c9f76044,
        type: 3}
      propertyPath: m_LocalEulerAnglesHint.z
      value: 0
      objectReference: {fileID: 0}
    - target: {fileID: 2252309140482017201, guid: d12a02c398abf2b4b8a527a2c9f76044,
        type: 3}
      propertyPath: m_AnchoredPosition.x
      value: 0
      objectReference: {fileID: 0}
    - target: {fileID: 2252309140482017201, guid: d12a02c398abf2b4b8a527a2c9f76044,
        type: 3}
      propertyPath: m_AnchoredPosition.y
      value: 0.221
      objectReference: {fileID: 0}
    - target: {fileID: 2252309140482017201, guid: d12a02c398abf2b4b8a527a2c9f76044,
        type: 3}
      propertyPath: m_SizeDelta.x
      value: 60
      objectReference: {fileID: 0}
    - target: {fileID: 2252309140482017201, guid: d12a02c398abf2b4b8a527a2c9f76044,
        type: 3}
      propertyPath: m_SizeDelta.y
      value: 20
      objectReference: {fileID: 0}
    - target: {fileID: 2252309140482017201, guid: d12a02c398abf2b4b8a527a2c9f76044,
        type: 3}
      propertyPath: m_AnchorMin.x
      value: 0.5
      objectReference: {fileID: 0}
    - target: {fileID: 2252309140482017201, guid: d12a02c398abf2b4b8a527a2c9f76044,
        type: 3}
      propertyPath: m_AnchorMin.y
      value: 0.5
      objectReference: {fileID: 0}
    - target: {fileID: 2252309140482017201, guid: d12a02c398abf2b4b8a527a2c9f76044,
        type: 3}
      propertyPath: m_AnchorMax.x
      value: 0.5
      objectReference: {fileID: 0}
    - target: {fileID: 2252309140482017201, guid: d12a02c398abf2b4b8a527a2c9f76044,
        type: 3}
      propertyPath: m_AnchorMax.y
      value: 0.5
      objectReference: {fileID: 0}
    - target: {fileID: 2252309140482017201, guid: d12a02c398abf2b4b8a527a2c9f76044,
        type: 3}
      propertyPath: m_Pivot.x
      value: 0.5
      objectReference: {fileID: 0}
    - target: {fileID: 2252309140482017201, guid: d12a02c398abf2b4b8a527a2c9f76044,
        type: 3}
      propertyPath: m_Pivot.y
      value: 0.5
      objectReference: {fileID: 0}
    - target: {fileID: 2252309140482017201, guid: d12a02c398abf2b4b8a527a2c9f76044,
        type: 3}
      propertyPath: m_LocalScale.x
      value: 0.05
      objectReference: {fileID: 0}
    - target: {fileID: 2252309140482017201, guid: d12a02c398abf2b4b8a527a2c9f76044,
        type: 3}
      propertyPath: m_LocalScale.y
      value: 0.05
      objectReference: {fileID: 0}
    - target: {fileID: 2252309140870913199, guid: d12a02c398abf2b4b8a527a2c9f76044,
        type: 3}
      propertyPath: m_AnchorMax.x
      value: 0
      objectReference: {fileID: 0}
    - target: {fileID: 2252309140870913199, guid: d12a02c398abf2b4b8a527a2c9f76044,
        type: 3}
      propertyPath: m_AnchorMax.y
      value: 0
      objectReference: {fileID: 0}
    - target: {fileID: 2252309140771307941, guid: d12a02c398abf2b4b8a527a2c9f76044,
        type: 3}
      propertyPath: m_AnchorMax.y
      value: 0
      objectReference: {fileID: 0}
    m_RemovedComponents: []
  m_SourcePrefab: {fileID: 100100000, guid: d12a02c398abf2b4b8a527a2c9f76044, type: 3}
--- !u!1001 &2109146022569098952
PrefabInstance:
  m_ObjectHideFlags: 0
  serializedVersion: 2
  m_Modification:
    m_TransformParent: {fileID: 0}
    m_Modifications:
    - target: {fileID: 2109146021938719245, guid: 64cc7512524edf141b4b01197a2da279,
        type: 3}
      propertyPath: m_Name
      value: OVRPlayerController
      objectReference: {fileID: 0}
    - target: {fileID: 2109146021938492963, guid: 64cc7512524edf141b4b01197a2da279,
        type: 3}
      propertyPath: m_LocalPosition.x
      value: 0
      objectReference: {fileID: 0}
    - target: {fileID: 2109146021938492963, guid: 64cc7512524edf141b4b01197a2da279,
        type: 3}
      propertyPath: m_LocalPosition.y
      value: 1
      objectReference: {fileID: 0}
    - target: {fileID: 2109146021938492963, guid: 64cc7512524edf141b4b01197a2da279,
        type: 3}
      propertyPath: m_LocalPosition.z
      value: 0
      objectReference: {fileID: 0}
    - target: {fileID: 2109146021938492963, guid: 64cc7512524edf141b4b01197a2da279,
        type: 3}
      propertyPath: m_LocalRotation.x
      value: 0
      objectReference: {fileID: 0}
    - target: {fileID: 2109146021938492963, guid: 64cc7512524edf141b4b01197a2da279,
        type: 3}
      propertyPath: m_LocalRotation.y
      value: 0
      objectReference: {fileID: 0}
    - target: {fileID: 2109146021938492963, guid: 64cc7512524edf141b4b01197a2da279,
        type: 3}
      propertyPath: m_LocalRotation.z
      value: 0
      objectReference: {fileID: 0}
    - target: {fileID: 2109146021938492963, guid: 64cc7512524edf141b4b01197a2da279,
        type: 3}
      propertyPath: m_LocalRotation.w
      value: 1
      objectReference: {fileID: 0}
    - target: {fileID: 2109146021938492963, guid: 64cc7512524edf141b4b01197a2da279,
        type: 3}
      propertyPath: m_RootOrder
      value: 2
      objectReference: {fileID: 0}
    - target: {fileID: 2109146021938492963, guid: 64cc7512524edf141b4b01197a2da279,
        type: 3}
      propertyPath: m_LocalEulerAnglesHint.x
      value: 0
      objectReference: {fileID: 0}
    - target: {fileID: 2109146021938492963, guid: 64cc7512524edf141b4b01197a2da279,
        type: 3}
      propertyPath: m_LocalEulerAnglesHint.y
      value: 0
      objectReference: {fileID: 0}
    - target: {fileID: 2109146021938492963, guid: 64cc7512524edf141b4b01197a2da279,
        type: 3}
      propertyPath: m_LocalEulerAnglesHint.z
      value: 0
      objectReference: {fileID: 0}
    - target: {fileID: 6068477719076828356, guid: 64cc7512524edf141b4b01197a2da279,
        type: 3}
      propertyPath: m_IsActive
      value: 1
      objectReference: {fileID: 0}
    - target: {fileID: 6068477718350980637, guid: 64cc7512524edf141b4b01197a2da279,
        type: 3}
      propertyPath: m_AnchorMax.x
      value: 0
      objectReference: {fileID: 0}
    - target: {fileID: 6068477718350980637, guid: 64cc7512524edf141b4b01197a2da279,
        type: 3}
      propertyPath: m_AnchorMax.y
      value: 0
      objectReference: {fileID: 0}
    m_RemovedComponents: []
  m_SourcePrefab: {fileID: 100100000, guid: 64cc7512524edf141b4b01197a2da279, type: 3}
--- !u!1001 &2616576861094424286
PrefabInstance:
  m_ObjectHideFlags: 0
  serializedVersion: 2
  m_Modification:
    m_TransformParent: {fileID: 0}
    m_Modifications:
    - target: {fileID: 2616576860081693226, guid: 0d31a987012de6b4e8beb3536c6ca253,
        type: 3}
      propertyPath: m_Name
      value: RightSphere
      objectReference: {fileID: 0}
    - target: {fileID: 2616576860081693222, guid: 0d31a987012de6b4e8beb3536c6ca253,
        type: 3}
      propertyPath: m_LocalPosition.x
      value: 10
      objectReference: {fileID: 0}
    - target: {fileID: 2616576860081693222, guid: 0d31a987012de6b4e8beb3536c6ca253,
        type: 3}
      propertyPath: m_LocalPosition.y
      value: 1
      objectReference: {fileID: 0}
    - target: {fileID: 2616576860081693222, guid: 0d31a987012de6b4e8beb3536c6ca253,
        type: 3}
      propertyPath: m_LocalPosition.z
      value: 20
      objectReference: {fileID: 0}
    - target: {fileID: 2616576860081693222, guid: 0d31a987012de6b4e8beb3536c6ca253,
        type: 3}
      propertyPath: m_LocalRotation.x
      value: -0
      objectReference: {fileID: 0}
    - target: {fileID: 2616576860081693222, guid: 0d31a987012de6b4e8beb3536c6ca253,
        type: 3}
      propertyPath: m_LocalRotation.y
      value: -0
      objectReference: {fileID: 0}
    - target: {fileID: 2616576860081693222, guid: 0d31a987012de6b4e8beb3536c6ca253,
        type: 3}
      propertyPath: m_LocalRotation.z
      value: -0
      objectReference: {fileID: 0}
    - target: {fileID: 2616576860081693222, guid: 0d31a987012de6b4e8beb3536c6ca253,
        type: 3}
      propertyPath: m_LocalRotation.w
      value: 1
      objectReference: {fileID: 0}
    - target: {fileID: 2616576860081693222, guid: 0d31a987012de6b4e8beb3536c6ca253,
        type: 3}
      propertyPath: m_RootOrder
      value: 4
      objectReference: {fileID: 0}
    - target: {fileID: 2616576860081693222, guid: 0d31a987012de6b4e8beb3536c6ca253,
        type: 3}
      propertyPath: m_LocalEulerAnglesHint.x
      value: 0
      objectReference: {fileID: 0}
    - target: {fileID: 2616576860081693222, guid: 0d31a987012de6b4e8beb3536c6ca253,
        type: 3}
      propertyPath: m_LocalEulerAnglesHint.y
      value: 0
      objectReference: {fileID: 0}
    - target: {fileID: 2616576860081693222, guid: 0d31a987012de6b4e8beb3536c6ca253,
        type: 3}
      propertyPath: m_LocalEulerAnglesHint.z
      value: 0
      objectReference: {fileID: 0}
    - target: {fileID: 2616576860081693222, guid: 0d31a987012de6b4e8beb3536c6ca253,
        type: 3}
      propertyPath: m_LocalScale.x
      value: 1
      objectReference: {fileID: 0}
    - target: {fileID: 2616576860081693222, guid: 0d31a987012de6b4e8beb3536c6ca253,
        type: 3}
      propertyPath: m_LocalScale.y
      value: 1
      objectReference: {fileID: 0}
    - target: {fileID: 2616576860081693222, guid: 0d31a987012de6b4e8beb3536c6ca253,
        type: 3}
      propertyPath: m_LocalScale.z
      value: 1
      objectReference: {fileID: 0}
    m_RemovedComponents: []
  m_SourcePrefab: {fileID: 100100000, guid: 0d31a987012de6b4e8beb3536c6ca253, type: 3}
--- !u!1001 &3354119328605609953
PrefabInstance:
  m_ObjectHideFlags: 0
  serializedVersion: 2
  m_Modification:
    m_TransformParent: {fileID: 0}
    m_Modifications:
    - target: {fileID: 3354119329520438668, guid: bbc7374b9b388a940b647aca552b4966,
        type: 3}
      propertyPath: m_Name
      value: CenterSphere-15
      objectReference: {fileID: 0}
    - target: {fileID: 3354119329520438672, guid: bbc7374b9b388a940b647aca552b4966,
        type: 3}
      propertyPath: m_LocalPosition.x
      value: 1.75
      objectReference: {fileID: 0}
    - target: {fileID: 3354119329520438672, guid: bbc7374b9b388a940b647aca552b4966,
        type: 3}
      propertyPath: m_LocalPosition.y
      value: 1
      objectReference: {fileID: 0}
    - target: {fileID: 3354119329520438672, guid: bbc7374b9b388a940b647aca552b4966,
        type: 3}
      propertyPath: m_LocalPosition.z
      value: 18.25
      objectReference: {fileID: 0}
    - target: {fileID: 3354119329520438672, guid: bbc7374b9b388a940b647aca552b4966,
        type: 3}
      propertyPath: m_LocalRotation.x
      value: 0
      objectReference: {fileID: 0}
    - target: {fileID: 3354119329520438672, guid: bbc7374b9b388a940b647aca552b4966,
        type: 3}
      propertyPath: m_LocalRotation.y
      value: 0
      objectReference: {fileID: 0}
    - target: {fileID: 3354119329520438672, guid: bbc7374b9b388a940b647aca552b4966,
        type: 3}
      propertyPath: m_LocalRotation.z
      value: 0
      objectReference: {fileID: 0}
    - target: {fileID: 3354119329520438672, guid: bbc7374b9b388a940b647aca552b4966,
        type: 3}
      propertyPath: m_LocalRotation.w
      value: 1
      objectReference: {fileID: 0}
    - target: {fileID: 3354119329520438672, guid: bbc7374b9b388a940b647aca552b4966,
        type: 3}
      propertyPath: m_RootOrder
      value: 3
      objectReference: {fileID: 0}
    - target: {fileID: 3354119329520438672, guid: bbc7374b9b388a940b647aca552b4966,
        type: 3}
      propertyPath: m_LocalEulerAnglesHint.x
      value: 0
      objectReference: {fileID: 0}
    - target: {fileID: 3354119329520438672, guid: bbc7374b9b388a940b647aca552b4966,
        type: 3}
      propertyPath: m_LocalEulerAnglesHint.y
      value: 0
      objectReference: {fileID: 0}
    - target: {fileID: 3354119329520438672, guid: bbc7374b9b388a940b647aca552b4966,
        type: 3}
      propertyPath: m_LocalEulerAnglesHint.z
      value: 0
      objectReference: {fileID: 0}
    - target: {fileID: 3354119329520438672, guid: bbc7374b9b388a940b647aca552b4966,
        type: 3}
      propertyPath: m_LocalScale.x
      value: 1
      objectReference: {fileID: 0}
    - target: {fileID: 3354119329520438672, guid: bbc7374b9b388a940b647aca552b4966,
        type: 3}
      propertyPath: m_LocalScale.y
      value: 1
      objectReference: {fileID: 0}
    - target: {fileID: 3354119329520438672, guid: bbc7374b9b388a940b647aca552b4966,
        type: 3}
      propertyPath: m_LocalScale.z
      value: 1
      objectReference: {fileID: 0}
    m_RemovedComponents: []
  m_SourcePrefab: {fileID: 100100000, guid: bbc7374b9b388a940b647aca552b4966, type: 3}
--- !u!1001 &4223949331132695770
PrefabInstance:
  m_ObjectHideFlags: 0
  serializedVersion: 2
  m_Modification:
    m_TransformParent: {fileID: 0}
    m_Modifications:
    - target: {fileID: 4223949333017603271, guid: ff42b65b69a727143b3fc2d07a40dba5,
        type: 3}
      propertyPath: m_Name
      value: LeftSphere
      objectReference: {fileID: 0}
    - target: {fileID: 4223949333017603323, guid: ff42b65b69a727143b3fc2d07a40dba5,
        type: 3}
      propertyPath: m_LocalPosition.x
      value: -10
      objectReference: {fileID: 0}
    - target: {fileID: 4223949333017603323, guid: ff42b65b69a727143b3fc2d07a40dba5,
        type: 3}
      propertyPath: m_LocalPosition.y
      value: 1
      objectReference: {fileID: 0}
    - target: {fileID: 4223949333017603323, guid: ff42b65b69a727143b3fc2d07a40dba5,
        type: 3}
      propertyPath: m_LocalPosition.z
      value: 20
      objectReference: {fileID: 0}
    - target: {fileID: 4223949333017603323, guid: ff42b65b69a727143b3fc2d07a40dba5,
        type: 3}
      propertyPath: m_LocalRotation.x
      value: 0
      objectReference: {fileID: 0}
    - target: {fileID: 4223949333017603323, guid: ff42b65b69a727143b3fc2d07a40dba5,
        type: 3}
      propertyPath: m_LocalRotation.y
      value: 0
      objectReference: {fileID: 0}
    - target: {fileID: 4223949333017603323, guid: ff42b65b69a727143b3fc2d07a40dba5,
        type: 3}
      propertyPath: m_LocalRotation.z
      value: 0
      objectReference: {fileID: 0}
    - target: {fileID: 4223949333017603323, guid: ff42b65b69a727143b3fc2d07a40dba5,
        type: 3}
      propertyPath: m_LocalRotation.w
      value: 1
      objectReference: {fileID: 0}
    - target: {fileID: 4223949333017603323, guid: ff42b65b69a727143b3fc2d07a40dba5,
        type: 3}
      propertyPath: m_RootOrder
      value: 5
      objectReference: {fileID: 0}
    - target: {fileID: 4223949333017603323, guid: ff42b65b69a727143b3fc2d07a40dba5,
        type: 3}
      propertyPath: m_LocalEulerAnglesHint.x
      value: 0
      objectReference: {fileID: 0}
    - target: {fileID: 4223949333017603323, guid: ff42b65b69a727143b3fc2d07a40dba5,
        type: 3}
      propertyPath: m_LocalEulerAnglesHint.y
      value: 0
      objectReference: {fileID: 0}
    - target: {fileID: 4223949333017603323, guid: ff42b65b69a727143b3fc2d07a40dba5,
        type: 3}
      propertyPath: m_LocalEulerAnglesHint.z
      value: 0
      objectReference: {fileID: 0}
    - target: {fileID: 4223949333017603323, guid: ff42b65b69a727143b3fc2d07a40dba5,
        type: 3}
      propertyPath: m_LocalScale.x
      value: 1
      objectReference: {fileID: 0}
    - target: {fileID: 4223949333017603323, guid: ff42b65b69a727143b3fc2d07a40dba5,
        type: 3}
      propertyPath: m_LocalScale.y
      value: 1
      objectReference: {fileID: 0}
    - target: {fileID: 4223949333017603323, guid: ff42b65b69a727143b3fc2d07a40dba5,
        type: 3}
      propertyPath: m_LocalScale.z
      value: 1
      objectReference: {fileID: 0}
    m_RemovedComponents: []
  m_SourcePrefab: {fileID: 100100000, guid: ff42b65b69a727143b3fc2d07a40dba5, type: 3}
--- !u!1001 &7972015337673091528
PrefabInstance:
  m_ObjectHideFlags: 0
  serializedVersion: 2
  m_Modification:
    m_TransformParent: {fileID: 0}
    m_Modifications:
    - target: {fileID: 7972015338103338859, guid: 30e4bcb4d3a1a1a439a22de32c13a089,
        type: 3}
      propertyPath: m_Name
      value: Ground
      objectReference: {fileID: 0}
    - target: {fileID: 7972015338103338863, guid: 30e4bcb4d3a1a1a439a22de32c13a089,
        type: 3}
      propertyPath: m_LocalPosition.x
      value: 0
      objectReference: {fileID: 0}
    - target: {fileID: 7972015338103338863, guid: 30e4bcb4d3a1a1a439a22de32c13a089,
        type: 3}
      propertyPath: m_LocalPosition.y
      value: 0
      objectReference: {fileID: 0}
    - target: {fileID: 7972015338103338863, guid: 30e4bcb4d3a1a1a439a22de32c13a089,
        type: 3}
      propertyPath: m_LocalPosition.z
      value: 0
      objectReference: {fileID: 0}
    - target: {fileID: 7972015338103338863, guid: 30e4bcb4d3a1a1a439a22de32c13a089,
        type: 3}
      propertyPath: m_LocalRotation.x
      value: 0
      objectReference: {fileID: 0}
    - target: {fileID: 7972015338103338863, guid: 30e4bcb4d3a1a1a439a22de32c13a089,
        type: 3}
      propertyPath: m_LocalRotation.y
      value: 0
      objectReference: {fileID: 0}
    - target: {fileID: 7972015338103338863, guid: 30e4bcb4d3a1a1a439a22de32c13a089,
        type: 3}
      propertyPath: m_LocalRotation.z
      value: 0
      objectReference: {fileID: 0}
    - target: {fileID: 7972015338103338863, guid: 30e4bcb4d3a1a1a439a22de32c13a089,
        type: 3}
      propertyPath: m_LocalRotation.w
      value: 1
      objectReference: {fileID: 0}
    - target: {fileID: 7972015338103338863, guid: 30e4bcb4d3a1a1a439a22de32c13a089,
        type: 3}
      propertyPath: m_RootOrder
      value: 1
      objectReference: {fileID: 0}
    - target: {fileID: 7972015338103338863, guid: 30e4bcb4d3a1a1a439a22de32c13a089,
        type: 3}
      propertyPath: m_LocalEulerAnglesHint.x
      value: 0
      objectReference: {fileID: 0}
    - target: {fileID: 7972015338103338863, guid: 30e4bcb4d3a1a1a439a22de32c13a089,
        type: 3}
      propertyPath: m_LocalEulerAnglesHint.y
      value: 0
      objectReference: {fileID: 0}
    - target: {fileID: 7972015338103338863, guid: 30e4bcb4d3a1a1a439a22de32c13a089,
        type: 3}
      propertyPath: m_LocalEulerAnglesHint.z
      value: 0
      objectReference: {fileID: 0}
    m_RemovedComponents: []
  m_SourcePrefab: {fileID: 100100000, guid: 30e4bcb4d3a1a1a439a22de32c13a089, type: 3}
--- !u!1001 &8703461392835108904
PrefabInstance:
  m_ObjectHideFlags: 0
  serializedVersion: 2
  m_Modification:
    m_TransformParent: {fileID: 0}
    m_Modifications:
    - target: {fileID: 8703461393206962666, guid: 041b11552020f684aa46d55eda8ad756,
        type: 3}
      propertyPath: m_Name
      value: QuestionManager
      objectReference: {fileID: 0}
    - target: {fileID: 8703461393206962668, guid: 041b11552020f684aa46d55eda8ad756,
        type: 3}
      propertyPath: m_LocalPosition.x
      value: 0.8714844
      objectReference: {fileID: 0}
    - target: {fileID: 8703461393206962668, guid: 041b11552020f684aa46d55eda8ad756,
        type: 3}
      propertyPath: m_LocalPosition.y
      value: 1.3224072
      objectReference: {fileID: 0}
    - target: {fileID: 8703461393206962668, guid: 041b11552020f684aa46d55eda8ad756,
        type: 3}
      propertyPath: m_LocalPosition.z
      value: 0.9176074
      objectReference: {fileID: 0}
    - target: {fileID: 8703461393206962668, guid: 041b11552020f684aa46d55eda8ad756,
        type: 3}
      propertyPath: m_LocalRotation.x
      value: 0
      objectReference: {fileID: 0}
    - target: {fileID: 8703461393206962668, guid: 041b11552020f684aa46d55eda8ad756,
        type: 3}
      propertyPath: m_LocalRotation.y
      value: 0
      objectReference: {fileID: 0}
    - target: {fileID: 8703461393206962668, guid: 041b11552020f684aa46d55eda8ad756,
        type: 3}
      propertyPath: m_LocalRotation.z
      value: 0
      objectReference: {fileID: 0}
    - target: {fileID: 8703461393206962668, guid: 041b11552020f684aa46d55eda8ad756,
        type: 3}
      propertyPath: m_LocalRotation.w
      value: 1
      objectReference: {fileID: 0}
    - target: {fileID: 8703461393206962668, guid: 041b11552020f684aa46d55eda8ad756,
        type: 3}
      propertyPath: m_RootOrder
      value: 6
      objectReference: {fileID: 0}
    - target: {fileID: 8703461393206962668, guid: 041b11552020f684aa46d55eda8ad756,
        type: 3}
      propertyPath: m_LocalEulerAnglesHint.x
      value: 0
      objectReference: {fileID: 0}
    - target: {fileID: 8703461393206962668, guid: 041b11552020f684aa46d55eda8ad756,
        type: 3}
      propertyPath: m_LocalEulerAnglesHint.y
      value: 0
      objectReference: {fileID: 0}
    - target: {fileID: 8703461393206962668, guid: 041b11552020f684aa46d55eda8ad756,
        type: 3}
      propertyPath: m_LocalEulerAnglesHint.z
      value: 0
      objectReference: {fileID: 0}
    m_RemovedComponents: []
  m_SourcePrefab: {fileID: 100100000, guid: 041b11552020f684aa46d55eda8ad756, type: 3}
